{
  "type": "FeatureCollection",
  "features": [
    {
      "type": "Feature",
      "geometry": {
        "type": "Polygon",
        "coordinates": [
          [
            [
              21.044118,
              52.240717,
              0
            ],
            [
              21.044934,
              52.24098,
              0
            ],
            [
              21.045663,
              52.241046,
              0
            ],
            [
              21.046114,
              52.24098,
              0
            ],
            [
              21.046543,
              52.240849,
              0
            ],
            [
              21.047015,
              52.240625,
              0
            ],
            [
              21.047423,
              52.240323,
              0
            ],
            [
              21.047788,
              52.239929,
              0
            ],
            [
              21.047981,
              52.239443,
              0
            ],
            [
              21.047981,
              52.239114,
              0
            ],
            [
              21.047873,
              52.238799,
              0
            ],
            [
              21.04738,
              52.238405,
              0
            ],
            [
              21.046994,
              52.238195,
              0
            ],
            [
              21.0465,
              52.238103,
              0
            ],
            [
              21.045985,
              52.238024,
              0
            ],
            [
              21.045213,
              52.238037,
              0
            ],
            [
              21.044655,
              52.238287,
              0
            ],
            [
              21.044183,
              52.238536,
              0
            ],
            [
              21.043754,
              52.23893,
              0
            ],
            [
              21.043518,
              52.239364,
              0
            ],
            [
              21.043346,
              52.239824,
              0
            ],
            [
              21.043518,
              52.240218,
              0
            ],
            [
              21.044118,
              52.240717,
              0
            ]
          ]
        ]
      },
      "properties": {
        "name": "NAME",
        "styleUrl": "#Path",
        "styleHash": "7725d45e",
        "description": "YES"
      }
    },
    {
      "type": "Feature",
      "geometry": {
        "type": "Polygon",
        "coordinates": [
          [
            [
              21.042831,
              52.241414,
              0
            ],
            [
              21.043582,
              52.242373,
              0
            ],
            [
              21.044118,
              52.24303,
              0
            ],
            [
              21.044784,
              52.243082,
              0
            ],
            [
              21.045899,
              52.243069,
              0
            ],
            [
              21.046586,
              52.242951,
              0
            ],
            [
              21.047015,
              52.242872,
              0
            ],
            [
              21.047273,
              52.242754,
              0
            ],
            [
              21.047165,
              52.242544,
              0
            ],
            [
              21.046951,
              52.242136,
              0
            ],
            [
              21.046693,
              52.241703,
              0
            ],
            [
              21.046543,
              52.241388,
              0
            ],
            [
              21.046414,
              52.24119,
              0
            ],
            [
              21.046286,
              52.241007,
              0
            ],
            [
              21.045384,
              52.241072,
              0
            ],
            [
              21.044934,
              52.241007,
              0
            ],
            [
              21.044226,
              52.240823,
              0
            ],
            [
              21.044033,
              52.240744,
              0
            ],
            [
              21.042831,
              52.241414,
              0
            ]
          ]
        ]
      },
      "properties": {
        "name": "NAME",
        "styleUrl": "#Lump",
        "styleHash": "6cb306c1",
        "description": "YES"
      }
    },
    {
      "type": "Feature",
      "geometry": {
        "type": "Polygon",
        "coordinates": [
          [
            [
              21.042767,
              52.241414,
              0
            ],
            [
              21.04399,
              52.240691,
              0
            ],
            [
              21.043711,
              52.240494,
              0
            ],
            [
              21.04341,
              52.240231,
              0
            ],
            [
              21.043282,
              52.240008,
              0
            ],
            [
              21.043367,
              52.239561,
              0
            ],
            [
              21.043518,
              52.23918,
              0
            ],
            [
              21.043818,
              52.238799,
              0
            ],
            [
              21.044247,
              52.238418,
              0
            ],
            [
              21.044955,
              52.238076,
              0
            ],
            [
              21.045449,
              52.237958,
              0
            ],
            [
              21.046114,
              52.237971,
              0
            ],
            [
              21.046715,
              52.238089,
              0
            ],
            [
              21.046951,
              52.238129,
              0
            ],
            [
              21.04738,
              52.237735,
              0
            ],
            [
              21.04768,
              52.237446,
              0
            ],
            [
              21.047444,
              52.237446,
              0
            ],
            [
              21.047058,
              52.237524,
              0
            ],
            [
              21.046715,
              52.237577,
              0
            ],
            [
              21.046479,
              52.23759,
              0
            ],
            [
              21.045964,
              52.237511,
              0
            ],
            [
              21.045213,
              52.237393,
              0
            ],
            [
              21.044226,
              52.237235,
              0
            ],
            [
              21.043046,
              52.238497,
              0
            ],
            [
              21.041479,
              52.240113,
              0
            ],
            [
              21.041393,
              52.240271,
              0
            ],
            [
              21.041114,
              52.240573,
              0
            ],
            [
              21.042423,
              52.241335,
              0
            ],
            [
              21.042595,
              52.241427,
              0
            ],
            [
              21.042767,
              52.241414,
              0
            ]
          ]
        ]
      },
      "properties": {
        "name": "NAME",
        "styleUrl": "#Lump",
        "styleHash": "6cb306c1",
        "description": "YES"
      }
    },
    {
      "type": "Feature",
      "geometry": {
        "type": "Polygon",
        "coordinates": [
          [
            [
              21.047702,
              52.237511,
              0
            ],
            [
              21.046972,
              52.238155,
              0
            ],
            [
              21.047702,
              52.238576,
              0
            ],
            [
              21.047981,
              52.238878,
              0
            ],
            [
              21.049225,
              52.238628,
              0
            ],
            [
              21.049933,
              52.23851,
              0
            ],
            [
              21.050577,
              52.238392,
              0
            ],
            [
              21.050792,
              52.238313,
              0
            ],
            [
              21.04959,
              52.237892,
              0
            ],
            [
              21.04856,
              52.237643,
              0
            ],
            [
              21.047788,
              52.237485,
              0
            ],
            [
              21.047702,
              52.237511,
              0
            ]
          ]
        ]
      },
      "properties": {
        "name": "NAME",
        "styleUrl": "#Lump",
        "styleHash": "6cb306c1",
        "description": "YES"
      }
    },
    {
      "type": "Feature",
      "geometry": {
        "type": "Polygon",
        "coordinates": [
          [
            [
              21.04738,
              52.242754,
              0
            ],
            [
              21.047187,
              52.242452,
              0
            ],
            [
              21.046929,
              52.241834,
              0
            ],
            [
              21.046414,
              52.24098,
              0
            ],
            [
              21.047122,
              52.240639,
              0
            ],
            [
              21.047595,
              52.240271,
              0
            ],
            [
              21.047959,
              52.239758,
              0
            ],
            [
              21.048045,
              52.239259,
              0
            ],
            [
              21.047981,
              52.238983,
              0
            ],
            [
              21.04811,
              52.238904,
              0
            ],
            [
              21.05062,
              52.238471,
              0
            ],
            [
              21.050835,
              52.238654,
              0
            ],
            [
              21.050706,
              52.239338,
              0
            ],
            [
              21.050255,
              52.240494,
              0
            ],
            [
              21.049547,
              52.241808,
              0
            ],
            [
              21.049397,
              52.242347,
              0
            ],
            [
              21.04738,
              52.242754,
              0
            ]
          ]
        ]
      },
      "properties": {
        "name": "NAME",
        "styleUrl": "#Lump",
        "styleHash": "6cb306c1",
        "description": "YES"
      }
    }
  ]
}